<?xml version="1.0" encoding="utf-8"?>
<!-- Generator: Adobe Illustrator 18.1.1, SVG Export Plug-In . SVG Version: 6.00 Build 0)  -->
<svg version="1.1" id="Layer_1" xmlns="http://www.w3.org/2000/svg" xmlns:xlink="http://www.w3.org/1999/xlink" x="0px" y="0px"
	 viewBox="0 136.9 612 611.4" enable-background="new 0 136.9 612 611.4" xml:space="preserve">
<g>
	<circle fill="#4362A5" cx="306.3" cy="442.6" r="305.7"/>
	<g>
		<rect x="117.6" y="316.8" fill="#FFFFFF" width="377.4" height="251.2"/>
		<path fill="#4362A5" d="M498.1,255.9H114.5c-26,0-47.9,22-47.9,47.9v263.7c0,26,22,47.9,47.9,47.9h63.9v79.9c0,3.3,2,6.3,5.1,7.5
			c0.9,0.4,1.9,0.5,2.9,0.5c2.2,0,4.4-0.9,5.9-2.6l77.5-85.3h228.2c26,0,47.9-22,47.9-47.9V303.8C546,277.8,524.1,255.9,498.1,255.9
			z M473.2,347.5l-95.9,183.8c-1.1,2.1-3,3.5-5.2,4.1c-0.6,0.1-1.2,0.2-1.8,0.2c-1.7,0-3.3-0.5-4.7-1.5l-138-99.7L152.4,517
			c-2.7,2.9-7.1,3.5-10.4,1.2c-3.3-2.3-4.4-6.6-2.6-10.2l79.9-159.8c1-2.1,3-3.6,5.2-4.2c2.3-0.6,4.7-0.1,6.6,1.3l137.9,99.6
			L460,338.6c2.6-3.1,7.2-3.7,10.5-1.4C473.9,339.4,475.1,343.9,473.2,347.5z"/>
	</g>
</g>
</svg>
